'code';'codeSystem';'displayName';'parentCode';'concept_Beschreibung';'meaning';'hints';'level';'type';'relationships'
'0';'1.2.40.0.34.5.38.4';'Maßnahme ohne regionale Zuordnung';'';'';'';'';'0';'S';''
'0-1';'1.2.40.0.34.5.38.4';'Ganzkörper';'';'';'';'';'1';'L';''
'0-2';'1.2.40.0.34.5.38.4';'Körperstamm';'';'';'';'';'1';'L';''
'0-3';'1.2.40.0.34.5.38.4';'Teilkörper';'';'';'';'';'1';'L';''
'0-4';'1.2.40.0.34.5.38.4';'Fetus';'';'';'';'';'1';'L';''
'1';'1.2.40.0.34.5.38.4';'Schädel';'';'';'';'';'0';'S';''
'1-1';'1.2.40.0.34.5.38.4';'Hirn';'';'';'';'';'1';'S';''
'1-1-1';'1.2.40.0.34.5.38.4';'Kleinhirnbrückenwinkel';'';'';'';'';'2';'L';''
'1-1-2';'1.2.40.0.34.5.38.4';'Sella';'';'';'';'';'2';'L';''
'1-2';'1.2.40.0.34.5.38.4';'Gesichtsschädel';'';'';'';'';'1';'S';''
'1-2-1';'1.2.40.0.34.5.38.4';'Orbita';'';'';'';'';'2';'S';''
'1-2-1-1';'1.2.40.0.34.5.38.4';'Tränengang';'';'';'';'';'3';'L';''
'1-2-1-2';'1.2.40.0.34.5.38.4';'Auge';'';'';'';'';'3';'L';''
'1-2-10';'1.2.40.0.34.5.38.4';'Zunge';'';'';'';'';'2';'L';''
'1-2-2';'1.2.40.0.34.5.38.4';'Kiefer';'';'';'';'';'2';'S';''
'1-2-2-1';'1.2.40.0.34.5.38.4';'Oberkiefer';'';'';'';'';'3';'L';''
'1-2-2-2';'1.2.40.0.34.5.38.4';'Unterkiefer';'';'';'';'';'3';'L';''
'1-2-2-3';'1.2.40.0.34.5.38.4';'Kiefergelenk';'';'';'';'';'3';'L';''
'1-2-2-4';'1.2.40.0.34.5.38.4';'Zahn';'';'';'';'';'3';'L';''
'1-2-3';'1.2.40.0.34.5.38.4';'Nasennebenhöhlen';'';'';'';'';'2';'L';''
'1-2-4';'1.2.40.0.34.5.38.4';'Schläfenbein';'';'';'';'';'2';'L';''
'1-2-5';'1.2.40.0.34.5.38.4';'Schädelbasis';'';'';'';'';'2';'L';''
'1-2-6';'1.2.40.0.34.5.38.4';'Nasenbein';'';'';'';'';'2';'L';''
'1-2-7';'1.2.40.0.34.5.38.4';'Speicheldrüsen';'';'';'';'';'2';'S';''
'1-2-7-1';'1.2.40.0.34.5.38.4';'Speicheldrüsengang';'';'';'';'';'3';'L';''
'1-2-8';'1.2.40.0.34.5.38.4';'Mundboden';'';'';'';'';'2';'L';''
'1-2-9';'1.2.40.0.34.5.38.4';'Jochbogen';'';'';'';'';'2';'L';''
'10';'1.2.40.0.34.5.38.4';'Nervensystem';'';'';'';'';'0';'S';''
'10-1';'1.2.40.0.34.5.38.4';'Plexus cervicobrachialis';'';'';'';'';'1';'L';''
'10-2';'1.2.40.0.34.5.38.4';'N. ulnaris';'';'';'';'';'1';'L';''
'10-3';'1.2.40.0.34.5.38.4';'N. medianus';'';'';'';'';'1';'L';''
'2';'1.2.40.0.34.5.38.4';'Hals';'';'';'';'';'0';'S';''
'2-1';'1.2.40.0.34.5.38.4';'Trachea';'';'';'';'';'1';'L';''
'2-2';'1.2.40.0.34.5.38.4';'Schilddrüse';'';'';'';'';'1';'L';''
'2-3';'1.2.40.0.34.5.38.4';'Nebenschilddrüse';'';'';'';'';'1';'L';''
'2-4';'1.2.40.0.34.5.38.4';'Pharynx';'';'';'';'';'1';'L';''
'2-5';'1.2.40.0.34.5.38.4';'Ösophagus (cervical)';'';'';'';'';'1';'L';''
'2-6';'1.2.40.0.34.5.38.4';'Larynx';'';'';'';'';'1';'L';''
'3';'1.2.40.0.34.5.38.4';'Thorax';'';'';'';'';'0';'S';''
'3-1';'1.2.40.0.34.5.38.4';'Lunge';'';'';'';'';'1';'S';''
'3-1-1';'1.2.40.0.34.5.38.4';'Bronchien';'';'';'';'';'2';'L';''
'3-1-2';'1.2.40.0.34.5.38.4';'Pleura';'';'';'';'';'2';'L';''
'3-2';'1.2.40.0.34.5.38.4';'Mediastinum';'';'';'';'';'1';'L';''
'3-3';'1.2.40.0.34.5.38.4';'Herz';'';'';'';'';'1';'S';''
'3-3-1';'1.2.40.0.34.5.38.4';'Myocard';'';'';'';'';'2';'L';''
'3-3-2';'1.2.40.0.34.5.38.4';'Klappen';'';'';'';'';'2';'L';''
'3-3-3';'1.2.40.0.34.5.38.4';'Reizleitungssystem';'';'';'';'';'2';'L';''
'3-4';'1.2.40.0.34.5.38.4';'Ösophagus (thoracal)';'';'';'';'';'1';'L';''
'3-5';'1.2.40.0.34.5.38.4';'Thoraxwand';'';'';'';'';'1';'S';''
'3-5-1';'1.2.40.0.34.5.38.4';'Knöcherner Thorax';'';'';'';'';'2';'L';''
'3-5-2';'1.2.40.0.34.5.38.4';'Sternum';'';'';'';'';'2';'L';''
'3-5-3';'1.2.40.0.34.5.38.4';'Rippen';'';'';'';'';'2';'L';''
'4';'1.2.40.0.34.5.38.4';'Abdomen';'';'';'';'';'0';'S';''
'4-1';'1.2.40.0.34.5.38.4';'Oberbauch';'';'';'';'';'1';'S';''
'4-1-1';'1.2.40.0.34.5.38.4';'Leber / Milz';'';'';'';'';'2';'S';''
'4-1-1-1';'1.2.40.0.34.5.38.4';'Gallenblase / Gallengang';'';'';'';'';'3';'L';''
'4-1-1-2';'1.2.40.0.34.5.38.4';'Leber';'';'';'';'';'3';'L';''
'4-1-1-3';'1.2.40.0.34.5.38.4';'Milz';'';'';'';'';'3';'L';''
'4-1-2';'1.2.40.0.34.5.38.4';'Pankreas';'';'';'';'';'2';'S';''
'4-1-2-1';'1.2.40.0.34.5.38.4';'Pankreasgang';'';'';'';'';'3';'L';''
'4-2';'1.2.40.0.34.5.38.4';'Darmtrakt';'';'';'';'';'1';'S';''
'4-2-1';'1.2.40.0.34.5.38.4';'Magen / Duodenum';'';'';'';'';'2';'L';''
'4-2-2';'1.2.40.0.34.5.38.4';'Dünndam';'';'';'';'';'2';'L';''
'4-2-3';'1.2.40.0.34.5.38.4';'Dickdarm';'';'';'';'';'2';'S';''
'4-2-3-1';'1.2.40.0.34.5.38.4';'Appendix';'';'';'';'';'3';'L';''
'4-2-3-2';'1.2.40.0.34.5.38.4';'Rektum';'';'';'';'';'3';'L';''
'4-3';'1.2.40.0.34.5.38.4';'Nebennieren';'';'';'';'';'1';'L';''
'4-4';'1.2.40.0.34.5.38.4';'Harntrakt';'';'';'';'';'1';'S';''
'4-4-1';'1.2.40.0.34.5.38.4';'Nieren';'';'';'';'';'2';'S';''
'4-4-1-1';'1.2.40.0.34.5.38.4';'Nierenbecken';'';'';'';'';'3';'L';''
'4-4-2';'1.2.40.0.34.5.38.4';'Ureter';'';'';'';'';'2';'L';''
'4-4-3';'1.2.40.0.34.5.38.4';'Harnblase';'';'';'';'';'2';'L';''
'4-4-4';'1.2.40.0.34.5.38.4';'Urethra';'';'';'';'';'2';'L';''
'4-4-5';'1.2.40.0.34.5.38.4';'NTX';'';'';'';'';'2';'L';''
'4-5';'1.2.40.0.34.5.38.4';'Becken / Unterbauch';'';'';'';'';'1';'S';''
'4-5-1';'1.2.40.0.34.5.38.4';'Uterus';'';'';'';'';'2';'L';''
'4-5-2';'1.2.40.0.34.5.38.4';'Tuben';'';'';'';'';'2';'L';''
'4-5-3';'1.2.40.0.34.5.38.4';'Ovar';'';'';'';'';'2';'L';''
'4-5-4';'1.2.40.0.34.5.38.4';'Schwangerschaft';'';'';'';'';'2';'L';''
'4-5-5';'1.2.40.0.34.5.38.4';'Prostata';'';'';'';'';'2';'L';''
'4-5-6';'1.2.40.0.34.5.38.4';'Scrotum /Hoden';'';'';'';'';'2';'L';''
'4-5-7';'1.2.40.0.34.5.38.4';'Penis / Corpus Cavernosum';'';'';'';'';'2';'L';''
'4-5-8';'1.2.40.0.34.5.38.4';'knöchernes Becken';'';'';'';'';'2';'L';''
'4-6';'1.2.40.0.34.5.38.4';'Bauchdecke';'';'';'';'';'1';'L';''
'4-7';'1.2.40.0.34.5.38.4';'Retroperitoneum';'';'';'';'';'1';'L';''
'5';'1.2.40.0.34.5.38.4';'Muskulo-Skelettal';'';'';'';'';'0';'S';''
'5-1';'1.2.40.0.34.5.38.4';'Arm (gesamt)';'';'';'';'';'1';'S';''
'5-1-1';'1.2.40.0.34.5.38.4';'Schulter';'';'';'';'';'2';'S';''
'5-1-1-1';'1.2.40.0.34.5.38.4';'Schulterblatt';'';'';'';'';'3';'L';''
'5-1-1-2';'1.2.40.0.34.5.38.4';'Clavicula';'';'';'';'';'3';'L';''
'5-1-1-3';'1.2.40.0.34.5.38.4';'Sternoclaviculargelenk';'';'';'';'';'3';'L';''
'5-1-1-4';'1.2.40.0.34.5.38.4';'Acromio-Claviculargelenk';'';'';'';'';'3';'L';''
'5-1-2';'1.2.40.0.34.5.38.4';'Axilla';'';'';'';'';'2';'L';''
'5-1-3';'1.2.40.0.34.5.38.4';'Oberarm';'';'';'';'';'2';'L';''
'5-1-4';'1.2.40.0.34.5.38.4';'Ellenbogen';'';'';'';'';'2';'L';''
'5-1-5';'1.2.40.0.34.5.38.4';'Unterarm';'';'';'';'';'2';'L';''
'5-1-6';'1.2.40.0.34.5.38.4';'DEPRECATED: Handwurzel';'';'';'';'DEPRECATED, DEPRECATED: nicht mehr verwenden';'2';'D';''
'5-1-7';'1.2.40.0.34.5.38.4';'Hand';'';'';'';'';'2';'S';''
'5-1-7-1';'1.2.40.0.34.5.38.4';'Finger';'';'';'';'';'3';'L';''
'5-1-7-2';'1.2.40.0.34.5.38.4';'Handgelenk';'';'';'';'';'3';'L';''
'5-1-7-3';'1.2.40.0.34.5.38.4';'Mittelhand';'';'';'';'';'3';'L';''
'5-1-7-4';'1.2.40.0.34.5.38.4';'Handwurzel';'';'';'';'';'3';'L';''
'5-2';'1.2.40.0.34.5.38.4';'Bein (gesamt)';'';'';'';'';'1';'S';''
'5-2-1';'1.2.40.0.34.5.38.4';'Hüfte';'';'';'';'';'2';'L';''
'5-2-2';'1.2.40.0.34.5.38.4';'Inguinal Region';'';'';'';'';'2';'L';''
'5-2-3';'1.2.40.0.34.5.38.4';'Oberschenkel';'';'';'';'';'2';'L';''
'5-2-4';'1.2.40.0.34.5.38.4';'Knie';'';'';'';'';'2';'S';''
'5-2-4-1';'1.2.40.0.34.5.38.4';'Patella';'';'';'';'';'3';'L';''
'5-2-5';'1.2.40.0.34.5.38.4';'Unterschenkel';'';'';'';'';'2';'L';''
'5-2-6';'1.2.40.0.34.5.38.4';'Sprunggelenk';'';'';'';'';'2';'L';''
'5-2-7';'1.2.40.0.34.5.38.4';'Fuß';'';'';'';'';'2';'S';''
'5-2-7-1';'1.2.40.0.34.5.38.4';'Zehe';'';'';'';'';'3';'L';''
'5-2-7-2';'1.2.40.0.34.5.38.4';'Fersenbein';'';'';'';'';'3';'L';''
'5-2-7-3';'1.2.40.0.34.5.38.4';'Mittelfuß';'';'';'';'';'3';'L';''
'5-2-7-4';'1.2.40.0.34.5.38.4';'Fußwurzel';'';'';'';'';'3';'L';''
'5-2-7-5';'1.2.40.0.34.5.38.4';'Achillessehne';'';'';'';'';'3';'L';''
'5-2-7-6';'1.2.40.0.34.5.38.4';'Vorfuß';'';'';'';'';'3';'L';''
'5-3';'1.2.40.0.34.5.38.4';'Wirbelsäule';'';'';'';'';'1';'S';''
'5-3-1';'1.2.40.0.34.5.38.4';'Halswirbelsäule';'';'';'';'';'2';'L';''
'5-3-2';'1.2.40.0.34.5.38.4';'Brustwirbelsäule';'';'';'';'';'2';'L';''
'5-3-3';'1.2.40.0.34.5.38.4';'Lendenwirbelsäule';'';'';'';'';'2';'L';''
'5-3-4';'1.2.40.0.34.5.38.4';'Kreuz / Steißbein / Sacro-Iliacalgelenke';'';'';'';'';'2';'L';''
'5-3-5';'1.2.40.0.34.5.38.4';'Gesamtaufnahme der Wirbelsäule';'';'';'';'';'2';'L';''
'6';'1.2.40.0.34.5.38.4';'Gefäßsystem';'';'';'';'';'0';'S';''
'6-1';'1.2.40.0.34.5.38.4';'Gefäße arteriell';'';'';'';'';'1';'S';''
'6-1-1';'1.2.40.0.34.5.38.4';'intrakraniell';'';'';'';'';'2';'S';''
'6-1-1-1';'1.2.40.0.34.5.38.4';'A. cerebri anterior';'';'';'';'';'3';'L';''
'6-1-1-2';'1.2.40.0.34.5.38.4';'A.cerebri media';'';'';'';'';'3';'L';''
'6-1-1-3';'1.2.40.0.34.5.38.4';'A. cerebri posterior';'';'';'';'';'3';'L';''
'6-1-1-4';'1.2.40.0.34.5.38.4';'A basilaris';'';'';'';'';'3';'L';''
'6-1-1-5';'1.2.40.0.34.5.38.4';'Circulus arteriosus';'';'';'';'';'3';'L';''
'6-1-2';'1.2.40.0.34.5.38.4';'Aorta';'';'';'';'';'2';'S';''
'6-1-2-1';'1.2.40.0.34.5.38.4';'thorakal';'';'';'';'';'3';'L';''
'6-1-2-2';'1.2.40.0.34.5.38.4';'abdominal';'';'';'';'';'3';'L';''
'6-1-3';'1.2.40.0.34.5.38.4';'Aortenäste';'';'';'';'';'2';'S';''
'6-1-3-1';'1.2.40.0.34.5.38.4';'Hals (Carotis / Vertebralis)';'';'';'';'';'3';'S';''
'6-1-3-1-1';'1.2.40.0.34.5.38.4';'Carotis';'';'';'';'';'4';'L';''
'6-1-3-1-2';'1.2.40.0.34.5.38.4';'Carotis externa';'';'';'';'';'4';'L';''
'6-1-3-1-3';'1.2.40.0.34.5.38.4';'Carotis interna';'';'';'';'';'4';'L';''
'6-1-3-1-4';'1.2.40.0.34.5.38.4';'Vertebralis';'';'';'';'';'4';'L';''
'6-1-3-2';'1.2.40.0.34.5.38.4';'Coronarien';'';'';'';'';'3';'L';''
'6-1-3-3';'1.2.40.0.34.5.38.4';'Pulmonalgefäße';'';'';'';'';'3';'L';''
'6-1-3-4';'1.2.40.0.34.5.38.4';'visceral';'';'';'';'';'3';'S';''
'6-1-3-4-1';'1.2.40.0.34.5.38.4';'Truncus coeliacus';'';'';'';'';'4';'L';''
'6-1-3-4-2';'1.2.40.0.34.5.38.4';'A. mesenterica superior';'';'';'';'';'4';'L';''
'6-1-3-4-3';'1.2.40.0.34.5.38.4';'A. mesenterica inferior';'';'';'';'';'4';'L';''
'6-1-3-4-4';'1.2.40.0.34.5.38.4';'A. spinalis';'';'';'';'';'4';'L';''
'6-1-3-5';'1.2.40.0.34.5.38.4';'Nierenarterien';'';'';'';'';'3';'L';''
'6-1-3-6';'1.2.40.0.34.5.38.4';'Armarterien';'';'';'';'';'3';'S';''
'6-1-3-6-1';'1.2.40.0.34.5.38.4';'Subclavia / Truncus Brachiocephalicus';'';'';'';'';'4';'L';''
'6-1-3-6-2';'1.2.40.0.34.5.38.4';'Oberarm';'';'';'';'';'4';'L';''
'6-1-3-6-3';'1.2.40.0.34.5.38.4';'Unterarm';'';'';'';'';'4';'L';''
'6-1-3-6-4';'1.2.40.0.34.5.38.4';'Hand';'';'';'';'';'4';'L';''
'6-1-3-7';'1.2.40.0.34.5.38.4';'Beinarterien';'';'';'';'';'3';'S';''
'6-1-3-7-1';'1.2.40.0.34.5.38.4';'Iliaca';'';'';'';'';'4';'L';''
'6-1-3-7-2';'1.2.40.0.34.5.38.4';'Oberschenkel';'';'';'';'';'4';'L';''
'6-1-3-7-3';'1.2.40.0.34.5.38.4';'Unterschenkel';'';'';'';'';'4';'L';''
'6-1-3-7-4';'1.2.40.0.34.5.38.4';'Fuß';'';'';'';'';'4';'L';''
'6-1-4';'1.2.40.0.34.5.38.4';'Dialyseshunt';'';'';'';'';'2';'L';''
'6-2';'1.2.40.0.34.5.38.4';'Gefäße venös';'';'';'';'';'1';'S';''
'6-2-1';'1.2.40.0.34.5.38.4';'Sinus cerebrales';'';'';'';'';'2';'L';''
'6-2-10';'1.2.40.0.34.5.38.4';'viszerale Venen';'';'';'';'';'2';'L';''
'6-2-2';'1.2.40.0.34.5.38.4';'Armvenen';'';'';'';'';'2';'S';''
'6-2-2-1';'1.2.40.0.34.5.38.4';'Subclavia';'';'';'';'';'3';'L';''
'6-2-2-2';'1.2.40.0.34.5.38.4';'Oberarm';'';'';'';'';'3';'L';''
'6-2-2-3';'1.2.40.0.34.5.38.4';'Unterarm';'';'';'';'';'3';'L';''
'6-2-2-4';'1.2.40.0.34.5.38.4';'Hand';'';'';'';'';'3';'L';''
'6-2-3';'1.2.40.0.34.5.38.4';'Cava superior';'';'';'';'';'2';'L';''
'6-2-4';'1.2.40.0.34.5.38.4';'Cava inferior';'';'';'';'';'2';'L';''
'6-2-5';'1.2.40.0.34.5.38.4';'Lebervenen';'';'';'';'';'2';'L';''
'6-2-6';'1.2.40.0.34.5.38.4';'Nierenvenen';'';'';'';'';'2';'S';''
'6-2-6-1';'1.2.40.0.34.5.38.4';'V. spermatica / ovarica';'';'';'';'';'3';'L';''
'6-2-7';'1.2.40.0.34.5.38.4';'Beinvenen';'';'';'';'';'2';'S';''
'6-2-7-1';'1.2.40.0.34.5.38.4';'Iliaca / Bein';'';'';'';'';'3';'L';''
'6-2-7-2';'1.2.40.0.34.5.38.4';'Oberschenkel';'';'';'';'';'3';'L';''
'6-2-7-3';'1.2.40.0.34.5.38.4';'Unterschenkel';'';'';'';'';'3';'L';''
'6-2-7-4';'1.2.40.0.34.5.38.4';'Fuß';'';'';'';'';'3';'L';''
'6-2-8';'1.2.40.0.34.5.38.4';'V. jugularis';'';'';'';'';'2';'L';''
'6-2-9';'1.2.40.0.34.5.38.4';'Pfortader';'';'';'';'';'2';'L';''
'6-3';'1.2.40.0.34.5.38.4';'Lymphgefäße und Lymphknoten';'';'';'';'';'1';'S';''
'6-3-1';'1.2.40.0.34.5.38.4';'Ganzkörper';'';'';'';'';'2';'L';''
'6-3-2';'1.2.40.0.34.5.38.4';'Kopf';'';'';'';'';'2';'L';''
'6-3-3';'1.2.40.0.34.5.38.4';'Hals';'';'';'';'';'2';'L';''
'6-3-4';'1.2.40.0.34.5.38.4';'Thorax';'';'';'';'';'2';'L';''
'6-3-5';'1.2.40.0.34.5.38.4';'Abdomen';'';'';'';'';'2';'L';''
'6-3-6';'1.2.40.0.34.5.38.4';'Arm';'';'';'';'';'2';'L';''
'6-3-7';'1.2.40.0.34.5.38.4';'Bein';'';'';'';'';'2';'L';''
'7';'1.2.40.0.34.5.38.4';'Mamma';'';'';'';'';'0';'S';''
'7-1';'1.2.40.0.34.5.38.4';'Milchgang';'';'';'';'';'1';'L';''
